%YAML 1.1
%TAG !u! tag:unity3d.com,2011:
--- !u!114 &11400000
MonoBehaviour:
  m_ObjectHideFlags: 0
  m_PrefabParentObject: {fileID: 0}
  m_PrefabInternal: {fileID: 0}
  m_GameObject: {fileID: 0}
  m_Enabled: 1
  m_EditorHideFlags: 0
  m_Script: {fileID: 11500000, guid: e8a689e8b4b208940a8e93e96d48ba40, type: 3}
  m_Name: Levels
  m_EditorClassIdentifier: 
  levels:
  - name: Level1
    background: {fileID: 1087934051214442, guid: 8bf18c270928a094582df0671ff598f0,
      type: 2}
    nexus: {fileID: 11400000, guid: 251f4445fa55c8f4fb880f86f7484937, type: 2}
  - name: Level2
    background: {fileID: 1087934051214442, guid: 1f669c67f4d1fa149921e6f00eba20c7,
      type: 2}
    nexus: {fileID: 11400000, guid: 8873aacc1534260488436df1906fd357, type: 2}
  - name: Level3
    background: {fileID: 1087934051214442, guid: f8b7b026c2df31449a2994a9f1410923,
      type: 2}
    nexus: {fileID: 11400000, guid: fccddb7cffca59a47baa07db9b2384f1, type: 2}
  - name: Level4
    background: {fileID: 1087934051214442, guid: c641dfa80540fe34c8efefed5ca67845,
      type: 2}
    nexus: {fileID: 11400000, guid: adecf63a6d229ff408c65e2d2cb14498, type: 2}
  - name: Level5
    background: {fileID: 1087934051214442, guid: a3ec06b3ae68a3346b2af786faeb9ae9,
      type: 2}
    nexus: {fileID: 11400000, guid: 29480ccb276618a44b5d08e12a21a8b4, type: 2}
  - name: Level6
    background: {fileID: 1087934051214442, guid: 40eb22d9179bf324ab573924a6db7b81,
      type: 2}
    nexus: {fileID: 11400000, guid: b835d0abe678c1e45937de1583cee035, type: 2}
