%YAML 1.1
%TAG !u! tag:unity3d.com,2011:
--- !u!114 &11400000
MonoBehaviour:
  m_ObjectHideFlags: 0
  m_PrefabParentObject: {fileID: 0}
  m_PrefabInternal: {fileID: 0}
  m_GameObject: {fileID: 0}
  m_Enabled: 1
  m_EditorHideFlags: 0
  m_Script: {fileID: 11500000, guid: 43ace8d944616ee4fbf5d633622de729, type: 3}
  m_Name: Ships
  m_EditorClassIdentifier: 
  ships:
  - name: Player1
    type: Player
    multipliers: Player1
    Prefab: {fileID: 1140423098091990, guid: 816aaaa922f540645998beaef8a7a185, type: 2}
  - name: Player2
    type: Player
    multipliers: Player2
    Prefab: {fileID: 1140423098091990, guid: 2e1825f688624264191914bd36fd9b6d, type: 2}
  - name: Player3
    type: Player
    multipliers: Player3
    Prefab: {fileID: 1140423098091990, guid: ae29b81c434215248af43cc360df30a8, type: 2}
  - name: Player4
    type: Player
    multipliers: Player4
    Prefab: {fileID: 1140423098091990, guid: 702caaa23209f5248aee316b0ecf2479, type: 2}
  - name: Player5
    type: Player
    multipliers: Player5
    Prefab: {fileID: 1140423098091990, guid: c3b1e65285386ee46abe9f1191fb68d1, type: 2}
  - name: Enemy1.1
    type: Enemy
    multipliers: Enemy1.1
    Prefab: {fileID: 1863621825470188, guid: edcf675d98498414b8d5323dc78b5fe6, type: 2}
  - name: Enemy1.2
    type: Enemy
    multipliers: Enemy1.2
    Prefab: {fileID: 1974503123309686, guid: 8e2064aa7477b574fa35b877891af352, type: 2}
  - name: Enemy1.3
    type: Enemy
    multipliers: Enemy1.3
    Prefab: {fileID: 1974503123309686, guid: 3440b4e8b8a9ed94694dd023f6a88d88, type: 2}
  - name: Enemy1.4
    type: Enemy
    multipliers: Enemy1.4
    Prefab: {fileID: 1974503123309686, guid: f90273fad7b68d44cb25272840a41925, type: 2}
  - name: Enemy1.5
    type: Enemy
    multipliers: Enemy1.5
    Prefab: {fileID: 1974503123309686, guid: 06b46d290b8ed3544a836d6db35ecff8, type: 2}
  - name: Enemy2.1
    type: Enemy
    multipliers: Enemy2.1
    Prefab: {fileID: 1974503123309686, guid: 25f1731319fea88469c0069783ead629, type: 2}
  - name: Enemy2.2
    type: Enemy
    multipliers: Enemy2.2
    Prefab: {fileID: 1974503123309686, guid: 90a0ece30e562cd4aa2b830cb2e46bbc, type: 2}
  - name: Enemy2.3
    type: Enemy
    multipliers: Enemy2.3
    Prefab: {fileID: 1974503123309686, guid: c2807af979912ca4184f2f1aadbff202, type: 2}
  - name: Enemy2.4
    type: Enemy
    multipliers: Enemy2.4
    Prefab: {fileID: 1974503123309686, guid: 529e5d0084e3ae247a0e791e7d0db335, type: 2}
  - name: Enemy2.5
    type: Enemy
    multipliers: Enemy2.5
    Prefab: {fileID: 1974503123309686, guid: d33d1c381fd68d941817ae90dc6e51bb, type: 2}
  - name: Enemy3.1
    type: Enemy
    multipliers: Enemy3.1
    Prefab: {fileID: 1974503123309686, guid: ef8fea8832746df428ad185a6720394e, type: 2}
  - name: Enemy3.2
    type: Enemy
    multipliers: Enemy3.2
    Prefab: {fileID: 1974503123309686, guid: e8b632aa8cfc05144990e09eb01492dd, type: 2}
  - name: Enemy3.3
    type: Enemy
    multipliers: Enemy3.3
    Prefab: {fileID: 1974503123309686, guid: 95b25adecc9305e49bb8cc77dd5ddc7a, type: 2}
  - name: Enemy3.4
    type: Enemy
    multipliers: Enemy3.4
    Prefab: {fileID: 1974503123309686, guid: d95507056c8b9554fbf00add0beb9a19, type: 2}
  - name: Enemy3.5
    type: Enemy
    multipliers: Enemy3.5
    Prefab: {fileID: 1974503123309686, guid: 98418b66e6fb34246af21a654b341435, type: 2}
