%YAML 1.1
%TAG !u! tag:unity3d.com,2011:
--- !u!114 &11400000
MonoBehaviour:
  m_ObjectHideFlags: 0
  m_PrefabParentObject: {fileID: 0}
  m_PrefabInternal: {fileID: 0}
  m_GameObject: {fileID: 0}
  m_Enabled: 1
  m_EditorHideFlags: 0
  m_Script: {fileID: 11500000, guid: 13aaab7bdb5e8c8479fe40fa803e8f83, type: 3}
  m_Name: LevelNexus5
  m_EditorClassIdentifier: 
  enemies:
  - enemyName: Enemy3.5
    position: {x: 0.07, y: 4.68, z: 0}
  - enemyName: Enemy3.1
    position: {x: -3.4799998, y: 1.8499999, z: 0}
  - enemyName: Enemy3.2
    position: {x: -3.09, y: 2.83, z: 0}
  - enemyName: Enemy3.3
    position: {x: -3.3099997, y: 3.8099997, z: 0}
  - enemyName: Enemy3.4
    position: {x: 3.6330004, y: 5.3899994, z: 0}
  - enemyName: Enemy3.5
    position: {x: 2.93, y: 6.24, z: 0}
  - enemyName: Enemy3.1
    position: {x: -2.49, y: 1.8499999, z: 0}
  - enemyName: Enemy3.1
    position: {x: -1.48, y: 1.8499999, z: 0}
  - enemyName: Enemy3.1
    position: {x: -0.5099999, y: 1.8499999, z: 0}
  - enemyName: Enemy3.1
    position: {x: 0.4700001, y: 1.8499999, z: 0}
  - enemyName: Enemy3.1
    position: {x: 1.5500001, y: 1.8499999, z: 0}
  - enemyName: Enemy3.1
    position: {x: 2.6200001, y: 1.8499999, z: 0}
  - enemyName: Enemy3.1
    position: {x: 3.72, y: 1.8499999, z: 0}
  - enemyName: Enemy3.2
    position: {x: -2.07, y: 2.83, z: 0}
  - enemyName: Enemy3.2
    position: {x: -1.0699999, y: 2.83, z: 0}
  - enemyName: Enemy3.2
    position: {x: 0.029999971, y: 2.83, z: 0}
  - enemyName: Enemy3.2
    position: {x: 1.14, y: 2.83, z: 0}
  - enemyName: Enemy3.2
    position: {x: 2.18, y: 2.83, z: 0}
  - enemyName: Enemy3.2
    position: {x: 3.19, y: 2.83, z: 0}
  - enemyName: Enemy3.4
    position: {x: 2.1630003, y: 5.4299994, z: 0}
  - enemyName: Enemy3.4
    position: {x: -3.56, y: 5.31, z: 0}
  - enemyName: Enemy3.5
    position: {x: -2.7929997, y: 6.1200004, z: 0}
  - enemyName: Enemy3.4
    position: {x: -2.09, y: 5.27, z: 0}
  - enemyName: Enemy3.3
    position: {x: -4.1099997, y: 3.8099997, z: 0}
  - enemyName: Enemy3.3
    position: {x: -2.4599998, y: 3.8099997, z: 0}
  - enemyName: Enemy3.3
    position: {x: -1.5399997, y: 3.8099997, z: 0}
  - enemyName: Enemy3.3
    position: {x: 4.2700005, y: 3.8099997, z: 0}
  - enemyName: Enemy3.3
    position: {x: 3.3500001, y: 3.8099997, z: 0}
  - enemyName: Enemy3.3
    position: {x: 1.7000005, y: 3.8099997, z: 0}
  - enemyName: Enemy3.3
    position: {x: 2.5, y: 3.8099997, z: 0}
